{
    "@class": "com.kony.gen.viz.model.component.KVizButton",
    "DNDConfig": null,
    "__parentReadjusting__": false,
    "_height_": {
        "type": "string",
        "value": "50dp"
    },
    "_left_": {
        "type": "string",
        "value": "58dp"
    },
    "_margin_": [
        6,
        6,
        6,
        6
    ],
    "_padding_": [
        0,
        0,
        0,
        0
    ],
    "_skin_": "s960fe25d77f490084175abd3abbcafc",
    "_text_": "CONFIRM",
    "_top_": {
        "type": "string",
        "value": "554dp"
    },
    "_width_": {
        "type": "string",
        "value": "300dp"
    },
    "canUpdateUI": true,
    "centerx": {
        "type": "string",
        "value": "50%"
    },
    "containerweight": 100,
    "contentalignment": 5,
    "displaytext": true,
    "focusskin": "s5c904a9027240529241df1e1e8b7180",
    "id": "Button0cad7144de46d40",
    "info": null,
    "iscustomlayout": false,
    "isvisible": true,
    "kuid": "f19d1df38d664a89891af4d376f14187",
    "name": "kony.ui.Button",
    "parent": "flxProfileManagement",
    "pf": "frmAccountSettings",
    "retaincontentalignment": false,
    "retainflexpositionproperties": false,
    "wType": "Button",
    "zindex": 1
}