{
    "DNDConfig": null,
    "__parentReadjusting__": false,
    "_height_": {
        "type": "string",
        "value": "185dp"
    },
    "_left_": {
        "type": "string",
        "value": "0dp"
    },
    "_margin_": [
        0,
        0,
        0,
        0
    ],
    "_orientation_": 6,
    "_padding_": [
        0,
        0,
        0,
        0
    ],
    "_percent_": true,
    "_skin_": "sce5c58984f94bcc8d5b753780e85909",
    "_top_": {
        "type": "string",
        "value": "154dp"
    },
    "_width_": {
        "type": "string",
        "value": "100%"
    },
    "allboxes": [],
    "autogrowmode": 0,
    "canUpdateUI": true,
    "children": [
        "CopyLabel0bf07885ce30e4d",
        "CopyTextField0e0b99a02bf2a4b",
        "CopyTextField0g5e9ea2e31da40"
    ],
    "clipbounds": true,
    "containerweight": 100,
    "enablescrolling": true,
    "id": "FlexContainer0i444cb1f81cd47",
    "info": null,
    "iscustomlayout": false,
    "isvisible": true,
    "kuid": "e64a8d5c1fc84f2d865e052d697d083b",
    "layouttype": 2,
    "name": "kony.ui.FlexContainer",
    "parent": "flxProfileManagement",
    "pf": "frmAccountSettings",
    "retaincontentalignment": false,
    "retainflexpositionproperties": false,
    "snapgridsize": 10,
    "snaptogrid": true,
    "wType": "FlexContainer",
    "widgetalignment": 1,
    "zindex": 1
}