{
    "@class": "com.kony.gen.viz.model.component.KVizImage2",
    "DNDConfig": null,
    "__parentReadjusting__": false,
    "_base64_": null,
    "_height_": {
        "type": "string",
        "value": "41dp"
    },
    "_left_": {
        "type": "string",
        "value": "4dp"
    },
    "_margin_": [
        0,
        0,
        0,
        0
    ],
    "_padding_": [
        0,
        0,
        0,
        0
    ],
    "_skin_": "sfeb5600f5134a0dac1851ddd163c17c",
    "_src_": "http://www.achems.org/online/mobile/images/white-menu-icon.png",
    "_top_": {
        "type": "string",
        "value": "8dp"
    },
    "_width_": {
        "type": "string",
        "value": "73dp"
    },
    "canUpdateUI": true,
    "containerweight": 100,
    "context": {
        "channel": "mobile",
        "formID": "frmAccountSettings",
        "platform": "android",
        "templateType": "forms",
        "topLevelBox": null
    },
    "id": "imgHomebtn",
    "imagescalemode": 1,
    "imagewhenfailed": "menu.png",
    "info": null,
    "invokedProperty": "imageWhenFailed",
    "iscustomlayout": false,
    "isvisible": true,
    "kuid": "g2dab9ab36d34944a20dd2bf040b66af",
    "name": "kony.ui.Image2",
    "parent": "frmAccountSettings",
    "pf": "frmAccountSettings",
    "retaincontentalignment": false,
    "retainflexpositionproperties": false,
    "srcType": 1,
    "wType": "Image",
    "widgetalignment": 5,
    "zindex": 1
}