{
    "DNDConfig": null,
    "__parentReadjusting__": false,
    "_height_": {
        "type": "ref",
        "value": "preferred"
    },
    "_margin_": [
        0,
        0,
        0,
        0
    ],
    "_orientation_": 6,
    "_padding_": [
        0,
        0,
        0,
        0
    ],
    "_percent_": true,
    "_skin_": "s8452b1e997b4ecebdf29e99721a1c4a",
    "_top_": {
        "type": "string",
        "value": "0"
    },
    "_width_": {
        "type": "string",
        "value": "100%"
    },
    "allboxes": [],
    "autogrowmode": 1,
    "canUpdateUI": true,
    "centerx": {
        "type": "string",
        "value": "50%"
    },
    "children": [
        "flxSmallNavigation",
        "flxFilmInfo"
    ],
    "clipbounds": true,
    "containerweight": 100,
    "enablescrolling": true,
    "id": "flxContent",
    "info": null,
    "iscustomlayout": false,
    "isvisible": true,
    "kuid": "a43c2ee2ba644ba59087d97b5f1e790a",
    "layouttype": 3,
    "maxwidth": {
        "type": "number",
        "value": "1200"
    },
    "minheight": {
        "type": "string",
        "value": "2500px"
    },
    "name": "kony.ui.FlexContainer",
    "parent": "flxScreenings",
    "pf": "frmScreeningsWeb",
    "responsiveData": {
        "b3": {
            "layoutType": 4
        }
    },
    "retaincontentalignment": false,
    "retainflexpositionproperties": false,
    "snapgridsize": 10,
    "snaptogrid": true,
    "wType": "FlexContainer",
    "widgetalignment": 1,
    "zindex": 1
}