{
    "DNDConfig": null,
    "__parentReadjusting__": false,
    "_height_": {
        "type": "string",
        "value": "12%"
    },
    "_left_": {
        "type": "string",
        "value": "0dp"
    },
    "_margin_": [
        0,
        0,
        0,
        0
    ],
    "_orientation_": 6,
    "_padding_": [
        0,
        0,
        0,
        0
    ],
    "_percent_": true,
    "_skin_": "s50f691c0f814f60aed5ba080a56f01b",
    "_top_": {
        "type": "string",
        "value": "0dp"
    },
    "_width_": {
        "type": "string",
        "value": "100.14%"
    },
    "allboxes": [],
    "canUpdateUI": true,
    "children": [
        "lblChosenCity",
        "imgBackBtn"
    ],
    "clipbounds": true,
    "containerweight": 100,
    "desktopweb": {
        "psp": {
            "hoverSkin": "s53eab087df444ffa588474004e0c6a8"
        }
    },
    "disabledSkins": {},
    "enablescrolling": true,
    "id": "flxChosenCity",
    "info": null,
    "iscustomlayout": false,
    "isvisible": true,
    "kuid": "ad2f49a9412f44fabbb0e930b8f525cb",
    "layouttype": 2,
    "name": "kony.ui.FlexContainer",
    "parent": "flxCinemas",
    "pf": "frmCatalogWeb",
    "responsiveData": {
        "b1": {
            "height": {
                "type": "string",
                "value": "110px"
            },
            "skin": "s50f691c0f814f60aed5ba080a56f01b"
        },
        "b2": {
            "height": {
                "type": "string",
                "value": "110px"
            }
        },
        "b3": {
            "height": {
                "type": "string",
                "value": "110px"
            }
        }
    },
    "retaincontentalignment": false,
    "retainflexpositionproperties": false,
    "snapgridsize": 10,
    "snaptogrid": true,
    "wType": "FlexContainer",
    "widgetalignment": 1,
    "zindex": 1
}