{
  "android": {
    "font_name": "default",
    "font_size": 100,
    "isForked": false
  },
  "androidwearos": {
    "font_name": "default",
    "font_size": 100,
    "isForked": false
  },
  "background_color": "252839ff",
  "bg_type": "one",
  "border_color": "f2b632ff",
  "border_style": "plain",
  "border_type": 0,
  "border_width": 1,
  "delinkedPltfrms": {
    "androidwear": [],
    "desktop": [
      "desktopweb"
    ],
    "mobile": [],
    "tablet": [],
    "watch": []
  },
  "desktopweb": {
    "font_name": "Verdana"
  },
  "fontSizeInPx": false,
  "font_color": "f2b632ff",
  "font_name": "iphoneSystem",
  "font_size": 100,
  "font_style": "normal",
  "font_weight": "normal",
  "ipad": {
    "font_name": "System",
    "font_size": 100,
    "isForked": false
  },
  "iphone": {
    "font_name": "System",
    "font_size": 100,
    "isForked": false
  },
  "isDefaultSkin": false,
  "kiosk": {
    "font_name": "None",
    "font_size": 100,
    "isForked": false
  },
  "kuid": "s4b91b16165e4a1c836d566ce0e80b8f",
  "spaan": {
    "customCSS": ".btnYellow100Border {\n  transition : 0.2s;\n}",
    "font_name": "Helvetica",
    "font_size": 100,
    "isCustomCSSEnabled": false,
    "isForked": true
  },
  "spaandroidtablet": {
    "customCSS": ".btnYellow100Border {\n  transition : 0.2s;\n}",
    "font_name": "Helvetica",
    "font_size": 100,
    "isCustomCSSEnabled": false,
    "isForked": true
  },
  "spabb": {
    "customCSS": ".btnYellow100Border {\n  transition : 0.2s;\n}",
    "font_name": "Helvetica",
    "font_size": 100,
    "isCustomCSSEnabled": false,
    "isForked": true
  },
  "spaip": {
    "customCSS": ".btnYellow100Border {\n  transition : 0.2s;\n}",
    "font_name": "Helvetica",
    "font_size": 100,
    "isCustomCSSEnabled": false,
    "isForked": true
  },
  "spaipad": {
    "customCSS": ".btnYellow100Border {\n  transition : 0.2s;\n}",
    "font_name": "Helvetica",
    "font_size": 100,
    "isCustomCSSEnabled": false,
    "isForked": true
  },
  "spawindowstablet": {
    "customCSS": ".btnYellow100Border {\n  transition : 0.2s;\n}",
    "font_name": "Helvetica",
    "font_size": 100,
    "isCustomCSSEnabled": false,
    "isForked": true
  },
  "spawinphone8": {
    "customCSS": ".btnYellow100Border {\n  transition : 0.2s;\n}",
    "font_name": "Helvetica",
    "font_size": 100,
    "isCustomCSSEnabled": false,
    "isForked": true
  },
  "tabrcandroid": {
    "font_name": "default",
    "font_size": 100,
    "isForked": false
  },
  "wType": "Button",
  "watchos": {
    "font_name": "System",
    "font_size": 100,
    "isForked": false
  },
  "windows8": {
    "font_name": "None",
    "font_size": 100,
    "isForked": false
  },
  "winphone8": {
    "font_name": "None",
    "font_size": 100,
    "isForked": false
  }
}