{
    "android": {
        "font_name": "default",
        "font_size": 90,
        "isForked": false
    },
    "androidwearos": {
        "font_name": "default",
        "font_size": 90,
        "isForked": false
    },
    "background_color": "b5b5b7ff",
    "bg_type": "one",
    "border_color": "b5b5b7ff",
    "border_style": "plain",
    "border_type": 0,
    "border_width": 1,
    "desktopweb": {
        "font_name": "Verdana",
        "font_size": 90,
        "isForked": false
    },
    "fontSizeInPx": false,
    "font_color": "252839ff",
    "font_name": "iphoneSystem",
    "font_size": 90,
    "font_style": "normal",
    "font_weight": "normal",
    "ipad": {
        "font_name": "System",
        "font_size": 90,
        "isForked": false
    },
    "iphone": {
        "font_name": "System",
        "font_size": 90,
        "isForked": false
    },
    "isDefaultSkin": false,
    "kiosk": {
        "font_name": "None",
        "font_size": 90,
        "isForked": false
    },
    "kuid": "s263f99dd32445b1aea486b8b909ba12",
    "spaan": {
        "font_name": "Helvetica",
        "font_size": 90,
        "isForked": false
    },
    "spaandroidtablet": {
        "font_name": "Helvetica",
        "font_size": 90,
        "isForked": false
    },
    "spabb": {
        "font_name": "Helvetica",
        "font_size": 90,
        "isForked": false
    },
    "spaip": {
        "font_name": "Helvetica",
        "font_size": 90,
        "isForked": false
    },
    "spaipad": {
        "font_name": "Helvetica",
        "font_size": 90,
        "isForked": false
    },
    "spawindowstablet": {
        "font_name": "Helvetica",
        "font_size": 90,
        "isForked": false
    },
    "spawinphone8": {
        "font_name": "Helvetica",
        "font_size": 90,
        "isForked": false
    },
    "tabrcandroid": {
        "font_name": "default",
        "font_size": 90,
        "isForked": false
    },
    "wType": "Label",
    "watchos": {
        "font_name": "System",
        "font_size": 90,
        "isForked": false
    },
    "windows8": {
        "font_name": "None",
        "font_size": 90,
        "isForked": false
    },
    "winphone8": {
        "font_name": "None",
        "font_size": 90,
        "isForked": false
    }
}