{
  "applicableblockedUIWidget": "SegmentedUI2",
  "background_color": "ff00ffff",
  "bg_type": "one",
  "isDefaultSkin": false,
  "kuid": "s569d17c36c0422f851afdbdf5bc03b6",
  "wType": "Blocked UI"
}