{
  "background_color": "f2b63200",
  "bg_type": "one",
  "border_color": "ffffffb7",
  "border_style": "plain",
  "border_type": 0,
  "border_width": 0,
  "isDefaultSkin": false,
  "kuid": "sbea2d56c2a040f59f4af27d43561b36",
  "wType": "Form"
}