{
    "android": {
        "font_name": "default"
    },
    "androidwearos": {
        "font_name": "default"
    },
    "background_color": "252839ff",
    "bg_type": "one",
    "border_color": "677077ff",
    "border_style": "plain",
    "border_type": 0,
    "border_width": 1,
    "delinkedPltfrms": {
        "androidwear": [],
        "desktop": [],
        "mobile": [],
        "tablet": [],
        "watch": []
    },
    "desktopweb": {
        "border_type": 0,
        "bottom_left_border_color": "ffffffff",
        "bottom_left_border_style": "plain",
        "bottom_left_border_width": 0,
        "bottom_right_border_color": "677077ff",
        "bottom_right_border_style": "plain",
        "bottom_right_border_width": "1",
        "isForked": true,
        "top_left_border_color": "ffffffff",
        "top_left_border_style": "plain",
        "top_left_border_width": 0,
        "top_right_border_color": "677077ff",
        "top_right_border_style": "plain",
        "top_right_border_width": "1"
    },
    "ipad": {
        "font_name": "System"
    },
    "iphone": {
        "font_name": "System"
    },
    "isDefaultSkin": false,
    "kiosk": {
        "font_name": "None"
    },
    "kuid": "s337fca958b7409b9c6c525a71e4bf93",
    "spaan": {
        "border_type": 0,
        "bottom_left_border_color": "ffffffff",
        "bottom_left_border_style": "plain",
        "bottom_left_border_width": 0,
        "bottom_right_border_color": "677077ff",
        "bottom_right_border_style": "plain",
        "bottom_right_border_width": "1",
        "font_name": "Helvetica",
        "isForked": true,
        "top_left_border_color": "ffffffff",
        "top_left_border_style": "plain",
        "top_left_border_width": 0,
        "top_right_border_color": "677077ff",
        "top_right_border_style": "plain",
        "top_right_border_width": "1"
    },
    "spaandroidtablet": {
        "border_type": 0,
        "bottom_left_border_color": "ffffffff",
        "bottom_left_border_style": "plain",
        "bottom_left_border_width": 0,
        "bottom_right_border_color": "677077ff",
        "bottom_right_border_style": "plain",
        "bottom_right_border_width": "1",
        "font_name": "Helvetica",
        "isForked": true,
        "top_left_border_color": "ffffffff",
        "top_left_border_style": "plain",
        "top_left_border_width": 0,
        "top_right_border_color": "677077ff",
        "top_right_border_style": "plain",
        "top_right_border_width": "1"
    },
    "spabb": {
        "border_type": 0,
        "bottom_left_border_color": "ffffffff",
        "bottom_left_border_style": "plain",
        "bottom_left_border_width": 0,
        "bottom_right_border_color": "677077ff",
        "bottom_right_border_style": "plain",
        "bottom_right_border_width": "1",
        "font_name": "Helvetica",
        "isForked": true,
        "top_left_border_color": "ffffffff",
        "top_left_border_style": "plain",
        "top_left_border_width": 0,
        "top_right_border_color": "677077ff",
        "top_right_border_style": "plain",
        "top_right_border_width": "1"
    },
    "spaip": {
        "border_type": 0,
        "bottom_left_border_color": "ffffffff",
        "bottom_left_border_style": "plain",
        "bottom_left_border_width": 0,
        "bottom_right_border_color": "677077ff",
        "bottom_right_border_style": "plain",
        "bottom_right_border_width": "1",
        "font_name": "Helvetica",
        "isForked": true,
        "top_left_border_color": "ffffffff",
        "top_left_border_style": "plain",
        "top_left_border_width": 0,
        "top_right_border_color": "677077ff",
        "top_right_border_style": "plain",
        "top_right_border_width": "1"
    },
    "spaipad": {
        "border_type": 0,
        "bottom_left_border_color": "ffffffff",
        "bottom_left_border_style": "plain",
        "bottom_left_border_width": 0,
        "bottom_right_border_color": "677077ff",
        "bottom_right_border_style": "plain",
        "bottom_right_border_width": "1",
        "font_name": "Helvetica",
        "isForked": true,
        "top_left_border_color": "ffffffff",
        "top_left_border_style": "plain",
        "top_left_border_width": 0,
        "top_right_border_color": "677077ff",
        "top_right_border_style": "plain",
        "top_right_border_width": "1"
    },
    "spawindowstablet": {
        "border_type": 0,
        "bottom_left_border_color": "ffffffff",
        "bottom_left_border_style": "plain",
        "bottom_left_border_width": 0,
        "bottom_right_border_color": "677077ff",
        "bottom_right_border_style": "plain",
        "bottom_right_border_width": "1",
        "font_name": "Helvetica",
        "isForked": true,
        "top_left_border_color": "ffffffff",
        "top_left_border_style": "plain",
        "top_left_border_width": 0,
        "top_right_border_color": "677077ff",
        "top_right_border_style": "plain",
        "top_right_border_width": "1"
    },
    "spawinphone8": {
        "border_type": 0,
        "bottom_left_border_color": "ffffffff",
        "bottom_left_border_style": "plain",
        "bottom_left_border_width": 0,
        "bottom_right_border_color": "677077ff",
        "bottom_right_border_style": "plain",
        "bottom_right_border_width": "1",
        "font_name": "Helvetica",
        "isForked": true,
        "top_left_border_color": "ffffffff",
        "top_left_border_style": "plain",
        "top_left_border_width": 0,
        "top_right_border_color": "677077ff",
        "top_right_border_style": "plain",
        "top_right_border_width": "1"
    },
    "tabrcandroid": {
        "font_name": "default"
    },
    "wType": "FlexContainer",
    "watchos": {
        "font_name": "System"
    },
    "windows8": {
        "font_name": "None"
    },
    "winphone8": {
        "font_name": "None"
    }
}