{
    "android": {
        "font_name": "default",
        "font_size": 110,
        "isForked": false
    },
    "androidwearos": {
        "font_name": "default",
        "font_size": 110,
        "isForked": false
    },
    "background_color": "ffffff00",
    "bg_type": "one",
    "border_color": "424242ff",
    "border_style": "plain",
    "border_type": 0,
    "border_width": 0,
    "desktopweb": {
        "font_name": "Helvetica",
        "font_size": 110,
        "isForked": false
    },
    "fontSizeInPx": false,
    "font_color": "ffffffff",
    "font_name": "iphoneSystem",
    "font_size": 110,
    "font_style": "normal",
    "font_weight": "normal",
    "ipad": {
        "font_name": "System",
        "font_size": 110,
        "isForked": false
    },
    "iphone": {
        "font_name": "System",
        "font_size": 110,
        "isForked": false
    },
    "isDefaultSkin": false,
    "kiosk": {
        "font_name": "None",
        "font_size": 110,
        "isForked": false
    },
    "kuid": "sf4e5f9d6aeb4a5bb4568dcd18ef8895",
    "spaan": {
        "font_name": "Helvetica",
        "font_size": 110,
        "isForked": false
    },
    "spaandroidtablet": {
        "font_name": "Helvetica",
        "font_size": 110,
        "isForked": false
    },
    "spabb": {
        "font_name": "Helvetica",
        "font_size": 110,
        "isForked": false
    },
    "spaip": {
        "font_name": "Helvetica",
        "font_size": 110,
        "isForked": false
    },
    "spaipad": {
        "font_name": "Helvetica",
        "font_size": 110,
        "isForked": false
    },
    "spawindowstablet": {
        "font_name": "Helvetica",
        "font_size": 110,
        "isForked": false
    },
    "spawinphone8": {
        "font_name": "Helvetica",
        "font_size": 110,
        "isForked": false
    },
    "tabrcandroid": {
        "font_name": "default",
        "font_size": 110,
        "isForked": false
    },
    "wType": "RichText",
    "watchos": {
        "font_name": "System",
        "font_size": 110,
        "isForked": false
    },
    "windows8": {
        "font_name": "None",
        "font_size": 110,
        "isForked": false
    },
    "winphone8": {
        "font_name": "None",
        "font_size": 110,
        "isForked": false
    }
}