{
    "android": {
        "font_name": "default",
        "font_size": 170,
        "isForked": false
    },
    "androidwearos": {
        "font_name": "default",
        "font_size": 170,
        "isForked": false
    },
    "background_color": "6b696b87",
    "bg_type": "one",
    "border_color": "24213eff",
    "border_style": "rc",
    "border_type": 0,
    "border_width": 3,
    "desktopweb": {
        "font_name": "Helvetica",
        "font_size": 170,
        "isForked": false
    },
    "fontSizeInPx": false,
    "font_color": "ffffffff",
    "font_name": "iphoneSystem",
    "font_size": 170,
    "font_style": "normal",
    "font_weight": "normal",
    "ipad": {
        "font_name": "System",
        "font_size": 170,
        "isForked": false
    },
    "iphone": {
        "font_name": "System",
        "font_size": 170,
        "isForked": false
    },
    "isDefaultSkin": false,
    "kiosk": {
        "font_name": "None",
        "font_size": 170,
        "isForked": false
    },
    "kuid": "s23d0c670588476aa57a9fd1f04b6030",
    "spaan": {
        "font_name": "Helvetica",
        "font_size": 170,
        "isForked": false
    },
    "spaandroidtablet": {
        "font_name": "Helvetica",
        "font_size": 170,
        "isForked": false
    },
    "spabb": {
        "font_name": "Helvetica",
        "font_size": 170,
        "isForked": false
    },
    "spaip": {
        "font_name": "Helvetica",
        "font_size": 170,
        "isForked": false
    },
    "spaipad": {
        "font_name": "Helvetica",
        "font_size": 170,
        "isForked": false
    },
    "spawindowstablet": {
        "font_name": "Helvetica",
        "font_size": 170,
        "isForked": false
    },
    "spawinphone8": {
        "font_name": "Helvetica",
        "font_size": 170,
        "isForked": false
    },
    "tabrcandroid": {
        "font_name": "default",
        "font_size": 170,
        "isForked": false
    },
    "wType": "RichText",
    "watchos": {
        "font_name": "System",
        "font_size": 170,
        "isForked": false
    },
    "windows8": {
        "font_name": "None",
        "font_size": 170,
        "isForked": false
    },
    "winphone8": {
        "font_name": "None",
        "font_size": 170,
        "isForked": false
    }
}