{
  "android": {
    "font_size": 110,
    "isForked": false
  },
  "androidwearos": {
    "background_color": "ffffff00",
    "bg_type": "one",
    "font_name": "default",
    "isForked": true,
    "text_shadow": {
      "br": 0,
      "color": "000000ff",
      "nm": 0,
      "x": 0,
      "y": 0
    }
  },
  "background_color": "ffffff00",
  "bg_type": "one",
  "border_color": "322e55f2",
  "border_style": "plain",
  "border_type": 0,
  "border_width": 3,
  "delinkedPltfrms": {
    "androidwear": [],
    "desktop": [],
    "mobile": [
      "android"
    ],
    "tablet": [],
    "watch": []
  },
  "desktopweb": {
    "background_color": "ffffff00",
    "bg_type": "one",
    "font_name": "Helvetica",
    "isForked": true
  },
  "fontSizeInPx": false,
  "font_color": "ffffffff",
  "font_name": "iphoneSystem",
  "font_size": 110,
  "font_style": "normal",
  "font_weight": "bold",
  "ipad": {
    "background_color": "ffffff00",
    "bg_type": "one",
    "font_name": "System",
    "isForked": true
  },
  "iphone": {
    "background_color": "ffffff00",
    "bg_type": "one",
    "font_name": "System",
    "isForked": true
  },
  "isDefaultSkin": false,
  "kiosk": {
    "background_color": "ffffff00",
    "bg_type": "one",
    "font_name": "None",
    "isForked": true
  },
  "kuid": "sacef81d019c48f0a9c748b3cf3e2b27",
  "spaan": {
    "background_color": "ffffff00",
    "bg_type": "one",
    "font_name": "Helvetica",
    "isForked": true
  },
  "spaandroidtablet": {
    "background_color": "ffffff00",
    "bg_type": "one",
    "font_name": "Helvetica",
    "isForked": true
  },
  "spabb": {
    "background_color": "ffffff00",
    "bg_type": "one",
    "font_name": "Helvetica",
    "isForked": true
  },
  "spaip": {
    "background_color": "ffffff00",
    "bg_type": "one",
    "font_name": "Helvetica",
    "isForked": true
  },
  "spaipad": {
    "background_color": "ffffff00",
    "bg_type": "one",
    "font_name": "Helvetica",
    "isForked": true
  },
  "spawindowstablet": {
    "background_color": "ffffff00",
    "bg_type": "one",
    "font_name": "Helvetica",
    "isForked": true
  },
  "spawinphone8": {
    "background_color": "ffffff00",
    "bg_type": "one",
    "font_name": "Helvetica",
    "isForked": true
  },
  "tabrcandroid": {
    "background_color": "ffffff00",
    "bg_type": "one",
    "font_name": "default",
    "isForked": true,
    "text_shadow": {
      "br": 0,
      "color": "000000ff",
      "nm": 0,
      "x": 0,
      "y": 0
    }
  },
  "wType": "TextField",
  "watchos": {
    "font_name": "System",
    "font_size": 110,
    "isForked": false
  },
  "windows8": {
    "background_color": "ffffff00",
    "bg_type": "one",
    "font_name": "None",
    "isForked": true
  },
  "winphone8": {
    "background_color": "ffffff00",
    "bg_type": "one",
    "font_name": "None",
    "isForked": true
  }
}