{
    "@class": "com.kony.gen.viz.model.component.KVizRichText",
    "DNDConfig": null,
    "__parentReadjusting__": false,
    "_height_": {
        "type": "string",
        "value": "96dp"
    },
    "_left_": {
        "type": "string",
        "value": "15dp"
    },
    "_margin_": [
        0,
        0,
        0,
        0
    ],
    "_padding_": [
        0,
        0,
        0,
        0
    ],
    "_skin_": "s56b3d471629469083d9a864ab1396db",
    "_text_": "RichText",
    "_top_": {
        "type": "string",
        "value": "19dp"
    },
    "_width_": {
        "type": "string",
        "value": "78.70%"
    },
    "_wrapping_": 2,
    "canUpdateUI": true,
    "centerx": {
        "type": "string",
        "value": "50%"
    },
    "centery": {
        "type": "string",
        "value": "50%"
    },
    "containerId": true,
    "containerweight": 100,
    "contentalignment": 5,
    "id": "txtCinemaTitle",
    "info": null,
    "iscustomlayout": false,
    "isvisible": true,
    "kuid": "g7ab6d26898c4db68d5ee1fdb9d188c8",
    "linkskin": "s3ec88d11e7343f3b7aea9de242feec5",
    "name": "kony.ui.RichText",
    "parent": "FBox0g941565fca2646",
    "pf": "FBox0g941565fca2646",
    "retaincontentalignment": false,
    "retainflexpositionproperties": false,
    "wType": "RichText",
    "watchos": {
        "render": false
    },
    "widgetalignment": 5,
    "windows10": {
        "render": false
    },
    "winphone10": {
        "render": false
    },
    "zindex": 1
}