{
    "@class": "com.kony.gen.viz.model.component.KVizImage2",
    "DNDConfig": null,
    "__parentReadjusting__": false,
    "_base64_": null,
    "_height_": {
        "type": "string",
        "value": "100dp"
    },
    "_left_": {
        "type": "string",
        "value": "1.00%"
    },
    "_margin_": [
        0,
        0,
        0,
        0
    ],
    "_padding_": [
        0,
        0,
        0,
        0
    ],
    "_skin_": "sfeb5600f5134a0dac1851ddd163c17c",
    "_src_": "imagedrag.png",
    "_top_": {
        "type": "string",
        "value": "1.00%"
    },
    "_width_": {
        "type": "string",
        "value": "30%"
    },
    "canUpdateUI": true,
    "containerId": true,
    "containerweight": 100,
    "context": {
        "channel": "mobile",
        "platform": "iphone",
        "templateType": "segments",
        "topLevelBox": null
    },
    "id": "imgPerson",
    "imagescalemode": 1,
    "imagewhenfailed": "useravatar3.png",
    "info": null,
    "invokedProperty": "imageWhenFailed",
    "iscustomlayout": false,
    "isvisible": true,
    "kuid": "a9450cdf049849aaabc8fbbc93b6f7a4",
    "name": "kony.ui.Image2",
    "parent": "flxPersonsInfo",
    "pf": "tmpPersonsInfo",
    "retaincontentalignment": false,
    "retainflexpositionproperties": false,
    "srcType": 1,
    "wType": "Image",
    "widgetalignment": 5,
    "zindex": 1
}