{
    "AS_Button_b147843bf8ae4b269501526dfb56ba41": {
        "id": "AS_Button_b147843bf8ae4b269501526dfb56ba41",
        "type": "ACTION_SEQUENCE",
        "params": [{
            "datatype": "collection",
            "name": "eventobject"
        }],
        "contextObj": {
            "name": "frmStart",
            "type": "forms",
            "platform": "",
            "KUID": "h1915259c90e4040b93af51b54e4dbfa"
        },
        "language": "js",
        "actions": [{
            "id": "INVOKE_FUNCTION___he7ad2f37dc146dcb93188418c7dbf4c",
            "type": "INVOKE_FUNCTION",
            "sequenceKUID": "showSignIn",
            "display": "showSignIn",
            "inputparams": [],
            "parentId": null,
            "callbackType": null,
            "disabled": null,
            "source": "controller"
        }]
    }
}