{
    "AS_Form_bcf28e42799e4bc4b5103a0ac25d4dc5": {
        "id": "AS_Form_bcf28e42799e4bc4b5103a0ac25d4dc5",
        "type": "ACTION_SEQUENCE",
        "params": [{
            "datatype": "collection",
            "name": "eventobject"
        }],
        "contextObj": {
            "name": "frmCatalog",
            "type": "forms",
            "platform": "",
            "KUID": "e17a00950f574360bfb9bc68748e59ff"
        },
        "language": "js",
        "actions": []
    }
}