{
    "AS_Form_d242649f6c484f96ab6c3d610fb4c10c": {
        "id": "AS_Form_d242649f6c484f96ab6c3d610fb4c10c",
        "type": "ACTION_SEQUENCE",
        "params": [{
            "datatype": "collection",
            "name": "eventobject"
        }],
        "contextObj": {
            "name": "frmStart",
            "type": "forms",
            "platform": "",
            "KUID": "h1915259c90e4040b93af51b54e4dbfa"
        },
        "language": "js",
        "actions": [{
            "id": "INVOKE_FUNCTION___e8eddc74f47d44b8a556bfac667e5c1e",
            "type": "INVOKE_FUNCTION",
            "sequenceKUID": "test",
            "display": "test",
            "inputparams": [],
            "parentId": null,
            "callbackType": null,
            "disabled": null,
            "source": "controller"
        }]
    }
}