{
    "AS_Image_ad67fefcda70447bba51bb678cbaca1d": {
        "id": "AS_Image_ad67fefcda70447bba51bb678cbaca1d",
        "type": "ACTION_SEQUENCE",
        "params": [{
            "datatype": "collection",
            "name": "eventobject"
        }, {
            "datatype": "string",
            "name": "x"
        }, {
            "datatype": "string",
            "name": "y"
        }, {
            "datatype": "collection",
            "name": "context"
        }],
        "contextObj": {
            "name": "FBox0cb546b8d7b4f41",
            "type": "templates",
            "platform": "",
            "KUID": "b2a67833ed1c4c2085fd44955f92f152"
        },
        "language": "js",
        "actions": []
    }
}