{
    "AS_Image_c0338953672443e3b06cfaf0755269c9": {
        "id": "AS_Image_c0338953672443e3b06cfaf0755269c9",
        "type": "ACTION_SEQUENCE",
        "params": [{
            "datatype": "collection",
            "name": "eventobject"
        }, {
            "datatype": "string",
            "name": "x"
        }, {
            "datatype": "string",
            "name": "y"
        }],
        "contextObj": {
            "name": "frmStart",
            "type": "forms",
            "platform": "",
            "KUID": "h1915259c90e4040b93af51b54e4dbfa"
        },
        "language": "js",
        "actions": [{
            "id": "INVOKE_FUNCTION___d5069bba1f0d48d3837b415e0aa8cd1d",
            "type": "INVOKE_FUNCTION",
            "sequenceKUID": "test",
            "display": "test",
            "inputparams": [],
            "parentId": null,
            "callbackType": null,
            "disabled": null,
            "source": "controller"
        }]
    }
}