{
    "AS_RichText_d179c36b9c604bb197ebab1e934795e9": {
        "id": "AS_RichText_d179c36b9c604bb197ebab1e934795e9",
        "type": "ACTION_SEQUENCE",
        "params": [{
            "datatype": "collection",
            "name": "eventobject"
        }, {
            "datatype": "string",
            "name": "linktext"
        }, {
            "datatype": "string",
            "name": "attributes"
        }],
        "language": "js",
        "actions": [{
            "id": "INVOKE_FUNCTION__ide_onClick_c28a66bfb9504ef088ca0f181a848738",
            "type": "INVOKE_FUNCTION",
            "sequenceKUID": "getCinema",
            "display": "getCinema",
            "inputparams": [],
            "callbackType": null,
            "disabled": null,
            "source": "controller"
        }]
    }
}