{
    "AS_Segment_c32dc469ba454fdb866e1f708369a394": {
        "id": "AS_Segment_c32dc469ba454fdb866e1f708369a394",
        "type": "ACTION_SEQUENCE",
        "params": [{
            "datatype": "collection",
            "name": "eventobject"
        }, {
            "datatype": "number",
            "name": "sectionNumber"
        }, {
            "datatype": "number",
            "name": "rowNumber"
        }],
        "contextObj": {
            "KUID": "d5a794ff9e914fdeaf81f6f1953fb41c",
            "name": "frmScreenings",
            "platform": "",
            "type": "forms"
        },
        "language": "js",
        "actions": [{
            "id": "NAVIGATE_TO_FORM___c2aaea5bd477483e81b7ad1ff442b6fe",
            "type": "NAVIGATE_TO_FORM",
            "formId": "frmStart",
            "formKUID": "h1915259c90e4040b93af51b54e4dbfa",
            "mappings": {},
            "mappingsOrder": [],
            "parentId": "",
            "callbackType": null,
            "enableMappingEditor": true,
            "package": ""
        }]
    }
}