{
    "AS_Tab_i5e1894439184798b74fd09b04ba044d": {
        "id": "AS_Tab_i5e1894439184798b74fd09b04ba044d",
        "type": "ACTION_SEQUENCE",
        "params": [{
            "datatype": "collection",
            "name": "eventobject"
        }],
        "contextObj": {
            "name": "frmCatalog",
            "type": "forms",
            "platform": "",
            "KUID": "e17a00950f574360bfb9bc68748e59ff"
        },
        "language": "js",
        "actions": [{
            "id": "INVOKE_FUNCTION___ae727484c5b747d3883a230cf663872d",
            "type": "INVOKE_FUNCTION",
            "sequenceKUID": "formOnload",
            "display": "formOnload",
            "inputparams": [],
            "parentId": null,
            "callbackType": null,
            "disabled": null,
            "source": "controller"
        }]
    }
}