{
    "@class": "com.kony.gen.viz.model.component.KVizLabel",
    "DNDConfig": null,
    "__parentReadjusting__": false,
    "_height_": {
        "type": "ref",
        "value": "preferred"
    },
    "_margin_": [
        1,
        1,
        1,
        1
    ],
    "_padding_": [
        0,
        0,
        0,
        0
    ],
    "_skin_": "sb8def46097541a291dbf3b0e49ea799",
    "_text_": "Label",
    "_top_": {
        "type": "number",
        "value": "1"
    },
    "_width_": {
        "type": "ref",
        "value": "preferred"
    },
    "_wrapping_": 2,
    "android": {
        "textStyle": {
            "letterSpacing": 0,
            "strikeThrough": false
        }
    },
    "canUpdateUI": true,
    "centerx": {
        "type": "string",
        "value": "10%"
    },
    "centery": {
        "type": "string",
        "value": "50.16%"
    },
    "containerId": true,
    "containerweight": 100,
    "contentalignment": 4,
    "id": "imgMenu",
    "info": null,
    "ipad": {
        "psp": {
            "wrapping": 2
        }
    },
    "iphone": {
        "psp": {
            "wrapping": 2
        }
    },
    "iscustomlayout": false,
    "isvisible": true,
    "kuid": "e40903d097c340b08055da902f808258",
    "name": "kony.ui.Label",
    "parent": "CopyFBox0e5e5327284e749",
    "pf": "CopyFBox0e5e5327284e749",
    "retaincontentalignment": false,
    "retainflexpositionproperties": false,
    "textstyle": {},
    "tooltip": "",
    "wType": "Label",
    "zindex": 1
}