{
    "DNDConfig": null,
    "__parentReadjusting__": false,
    "_height_": {
        "type": "string",
        "value": "480dp"
    },
    "_left_": {
        "type": "string",
        "value": "0dp"
    },
    "_margin_": [
        0,
        0,
        0,
        0
    ],
    "_orientation_": 6,
    "_padding_": [
        0,
        0,
        0,
        0
    ],
    "_percent_": true,
    "_skin_": "s8452b1e997b4ecebdf29e99721a1c4a",
    "_top_": {
        "type": "string",
        "value": "55dp"
    },
    "_width_": {
        "type": "string",
        "value": "100%"
    },
    "allboxes": [],
    "autogrowmode": 0,
    "canUpdateUI": true,
    "centery": {
        "type": "string",
        "value": "55%"
    },
    "children": [
        "txtSignIn",
        "txtEnterData",
        "flxFields",
        "flxButtons",
        "flxNewHere"
    ],
    "clipbounds": true,
    "containerweight": 100,
    "enablescrolling": true,
    "id": "flxLogin",
    "info": null,
    "iscustomlayout": false,
    "isvisible": true,
    "kuid": "h26e0d69786f4c60997dd7662596fd4a",
    "layouttype": 4,
    "name": "kony.ui.FlexContainer",
    "parent": "frmSignIn",
    "pf": "frmSignIn",
    "retaincontentalignment": false,
    "retainflexpositionproperties": false,
    "snapgridsize": 10,
    "snaptogrid": true,
    "wType": "FlexContainer",
    "widgetalignment": 1,
    "zindex": 1
}