{
    "@class": "com.kony.gen.viz.model.component.KVizRichText",
    "DNDConfig": null,
    "__parentReadjusting__": false,
    "_height_": {
        "type": "string",
        "value": "26dp"
    },
    "_margin_": [
        0,
        0,
        0,
        0
    ],
    "_padding_": [
        2,
        0,
        0,
        0
    ],
    "_skin_": "s770a89f51214294845c158c017f3c57",
    "_text_": "Sing Up",
    "_top_": {
        "type": "string",
        "value": "0dp"
    },
    "_width_": {
        "type": "string",
        "value": "50%"
    },
    "_wrapping_": 2,
    "canUpdateUI": true,
    "containerweight": 100,
    "contentalignment": 4,
    "id": "txtSingUp",
    "info": null,
    "iscustomlayout": false,
    "isvisible": true,
    "kuid": "e808332dea8f4b929d169d4e5d5b50f4",
    "linkskin": "s3ec88d11e7343f3b7aea9de242feec5",
    "name": "kony.ui.RichText",
    "paddinginpixel": false,
    "parent": "flxNewHere",
    "pf": "frmSignIn",
    "retaincontentalignment": false,
    "retainflexpositionproperties": false,
    "wType": "RichText",
    "widgetalignment": 5,
    "zindex": 1
}