{
    "DNDConfig": null,
    "__parentReadjusting__": false,
    "_height_": {
        "type": "string",
        "value": "60px"
    },
    "_left_": {
        "type": "string",
        "value": "0dp"
    },
    "_margin_": [
        0,
        0,
        0,
        0
    ],
    "_orientation_": 6,
    "_padding_": [
        0,
        0,
        0,
        0
    ],
    "_percent_": true,
    "_skin_": "s8452b1e997b4ecebdf29e99721a1c4a",
    "_top_": {
        "type": "string",
        "value": "0dp"
    },
    "_width_": {
        "type": "ref",
        "value": "preferred"
    },
    "allboxes": [],
    "autogrowmode": 0,
    "canUpdateUI": true,
    "children": [
        "freeSeat",
        "freeSeatDescription",
        "takenSeat",
        "takenSeatDescription",
        "chosenSeat",
        "chosenSeatDescription"
    ],
    "clipbounds": true,
    "containerweight": 100,
    "enablescrolling": true,
    "id": "placeDescriptionFlex",
    "info": null,
    "iscustomlayout": false,
    "isvisible": true,
    "kuid": "ge97a076cd0e4e43831c85d4777ada93",
    "layouttype": 3,
    "minwidth": {
        "type": "string",
        "value": "600px"
    },
    "name": "kony.ui.FlexContainer",
    "parent": "seatsFlex",
    "pf": "userwidgetmodel",
    "retaincontentalignment": false,
    "retainflexpositionproperties": false,
    "snapgridsize": 10,
    "snaptogrid": true,
    "wType": "FlexContainer",
    "widgetalignment": 1,
    "zindex": 1
}