{
    "@class": "com.kony.gen.viz.model.component.KVizRichText",
    "DNDConfig": null,
    "__parentReadjusting__": false,
    "_height_": {
        "type": "string",
        "value": "113dp"
    },
    "_left_": {
        "type": "string",
        "value": "155dp"
    },
    "_margin_": [
        0,
        0,
        0,
        0
    ],
    "_padding_": [
        0,
        0,
        0,
        0
    ],
    "_right_": {
        "type": "number",
        "value": "10"
    },
    "_skin_": "sfb95e71462546eb910d442e9bfe3f7d",
    "_text_": "Название",
    "_top_": {
        "type": "string",
        "value": "49dp"
    },
    "_wrapping_": 2,
    "canUpdateUI": true,
    "containerweight": 100,
    "contentalignment": 5,
    "id": "txtChosenItemScrTitle",
    "info": null,
    "iscustomlayout": false,
    "isvisible": true,
    "kuid": "d76192e958fd4854a4b291ea59e838bf",
    "linkskin": "s3ec88d11e7343f3b7aea9de242feec5",
    "name": "kony.ui.RichText",
    "parent": "FlxContChosenItem",
    "pf": "frmScreenings",
    "retaincontentalignment": false,
    "retainflexpositionproperties": false,
    "wType": "RichText",
    "widgetalignment": 5,
    "zindex": 1
}