{
    "@class": "com.kony.gen.viz.model.component.KVizRichText",
    "DNDConfig": null,
    "__parentReadjusting__": false,
    "_height_": {
        "type": "string",
        "value": "58dp"
    },
    "_left_": {
        "type": "string",
        "value": "81dp"
    },
    "_margin_": [
        0,
        0,
        0,
        0
    ],
    "_padding_": [
        0,
        0,
        0,
        0
    ],
    "_skin_": "s4ff791eb4ee41db9c29f5856fdd2f39",
    "_text_": "RichText",
    "_top_": {
        "type": "string",
        "value": "15dp"
    },
    "_width_": {
        "type": "string",
        "value": "45%"
    },
    "_wrapping_": 2,
    "canUpdateUI": true,
    "centery": {
        "type": "string",
        "value": "50.00%"
    },
    "containerId": true,
    "containerweight": 100,
    "contentalignment": 4,
    "id": "txtMenu",
    "info": null,
    "iscustomlayout": false,
    "isvisible": true,
    "kuid": "c643dffc672a44feb94d01bf7c481830",
    "linkskin": "s3ec88d11e7343f3b7aea9de242feec5",
    "name": "kony.ui.RichText",
    "parent": "CopyFBox0ec75eb367cff44",
    "pf": "CopyFBox0ec75eb367cff44",
    "retaincontentalignment": false,
    "retainflexpositionproperties": false,
    "wType": "RichText",
    "watchos": {
        "render": false
    },
    "widgetalignment": 5,
    "windows10": {
        "render": false
    },
    "winphone10": {
        "render": false
    },
    "zindex": 1
}