{
    "DNDConfig": null,
    "_height_": {
        "type": "string",
        "value": "165px"
    },
    "_margin_": [
        0,
        0,
        0,
        0
    ],
    "_orientation_": 6,
    "_padding_": [
        0,
        0,
        0,
        0
    ],
    "_percent_": true,
    "_width_": {
        "type": "string",
        "value": "100%"
    },
    "allboxes": [],
    "autogrowmode": 0,
    "canUpdateUI": true,
    "children": [
        "flxCinemaContent"
    ],
    "clipbounds": true,
    "containerId": true,
    "containerweight": 100,
    "controllerInfo": {
        "default": {
            "channel": "desktop",
            "name": "FBox0c34f57c3f53349Controller"
        }
    },
    "enablescrolling": true,
    "id": "FBox0c34f57c3f53349",
    "info": null,
    "isGeneratedTemplate": true,
    "isTemplate": true,
    "iscustomlayout": false,
    "isvisible": true,
    "kuid": "dc05f780d9bf4ef189a0f43a8a754db5",
    "layouttype": 2,
    "name": "kony.ui.FlexContainer",
    "pf": "FBox0c34f57c3f53349",
    "retaincontentalignment": false,
    "retainflexpositionproperties": false,
    "snapgridsize": 10,
    "snaptogrid": true,
    "wType": "FlexContainer",
    "widgetalignment": 1
}